Nom de la fonction MARS;Equipment_Type;Fonction;Commande ou controle;Abbreviation;Nom de la variable typique;OPC_Tag;Type OPC;Object_Name;Technical_Room;Signalisation_Area
APF-TT redonde;APFTT_Redonde;Defaut Liaison APFTT_ATS LRM;TK;DefATSLRM;CTT.APFTTR.LRM_M1.TK.DefATSLRM;DB_BTK_LRM_1.TK.APFTTR_LRM_M1_DefATSLRM;Booleen;APFTTR_LRM_M1;PCC_LRM;SIA_CATS_NIV1_M1
APF-TT redonde;APFTT_Redonde;Defaut Liaison APFTT_ATS LRM;TK;DefATSSTC;CTT.APFTTR.LRM_M1.TK.DefATSSTC;DB_BTK_LRM_1.TK.APFTTR_LRM_M1_DefATSSTC;Booleen;APFTTR_LRM_M1;PCC_LRM;SIA_CATS_NIV1_M1
APF-TT redonde;APFTT_Redonde;Defaut Liaison APFTT_ATS LRM;TK;DefATSLRM;CTT.APFTTR.LRM_M2.TK.DefATSLRM;DB_BTK_LRM_2.TK.APFTTR_LRM_M2_DefATSLRM;Booleen;APFTTR_LRM_M2;PCC_LRM;SIA_CATS_NIV1_M2
APF-TT redonde;APFTT_Redonde;Defaut Liaison APFTT_ATS LRM;TK;DefATSSTC;CTT.APFTTR.LRM_M2.TK.DefATSSTC;DB_BTK_LRM_2.TK.APFTTR_LRM_M2_DefATSSTC;Booleen;APFTTR_LRM_M2;PCC_LRM;SIA_CATS_NIV1_M2
APF-TT redonde;APFTT_Redonde;Defaut Liaison APFTT_ATS LRM;TK;DefATSLRM;CTT.APFTTR.STC_M1.TK.DebATSLRM;DB_BTK_STC_1.TK.APFTTR_STC_M1_DebATSLRM;Booleen;APFTTR_STC_M1;PCC_STC;SIA_CATS_NIV1_M1
APF-TT redonde;APFTT_Redonde;Defaut Liaison APFTT_ATS LRM;TK;DefATSSTC;CTT.APFTTR.STC_M1.TK.DebATSSTC;DB_BTK_STC_1.TK.APFTTR_STC_M1_DebATSSTC;Booleen;APFTTR_STC_M1;PCC_STC;SIA_CATS_NIV1_M1
APF-TT redonde;APFTT_Redonde;Defaut Liaison APFTT_ATS LRM;TK;DefATSLRM;CTT.APFTTR.STC_M2.TK.DebATSLRM;DB_BTK_STC_2.TK.APFTTR_STC_M2_DebATSLRM;Booleen;APFTTR_STC_M2;PCC_STC;SIA_CATS_NIV1_M2
APF-TT redonde;APFTT_Redonde;Defaut Liaison APFTT_ATS LRM;TK;DefATSSTC;CTT.APFTTR.STC_M2.TK.DebATSSTC;DB_BTK_STC_2.TK.APFTTR_STC_M2_DebATSSTC;Booleen;APFTTR_STC_M2;PCC_STC;SIA_CATS_NIV1_M2
APF-TT;APFTT;Defaut cable Ethernet;TK;DefEth;CTT.APF.LRM.M1.TK.DefEth;DB_BTK_LRM_1.TK.APF_LRM_M1_DefEth;Booleen;APFTT_LRM_M1;PCC_LRM;SIA_CATS_NIV1_M1
APF-TT;APFTT;Defaut de APF redonde;TK;FrtDRed;CTT.APF.LRM.M1.TK.FrtDRed;DB_BTK_LRM_1.TK.APF_LRM_M1_FrtDRed;Booleen;APFTT_LRM_M1;PCC_LRM;SIA_CATS_NIV1_M1
APF-TT;APFTT;APFTT Actif;TK;APFAct;Message de Service;DB_BTK_LRM_1.TK.APF_LRM_M1_APFAct;Booleen;APFTT_LRM_M1;PCC_LRM;SIA_CATS_NIV1_M1
APF-TT;APFTT;APFTT Non actif;TK;APFPas;Message de Service;DB_BTK_LRM_1.TK.APF_LRM_M1_APFPas;Booleen;APFTT_LRM_M1;PCC_LRM;SIA_CATS_NIV1_M1
APF-TT;APFTT;APFTT Defaut;TK;APFDef;Message de Service;DB_BTK_LRM_1.TK.APF_LRM_M1_APFDef;Booleen;APFTT_LRM_M1;PCC_LRM;SIA_CATS_NIV1_M1
APF-TT;APFTT;Defaut cable Ethernet;TK;DefEth;CTT.APF.LRM.M2.TK.DefEth;DB_BTK_LRM_2.TK.APF_LRM_M2_DefEth;Booleen;APFTT_LRM_M2;PCC_LRM;SIA_CATS_NIV1_M2
APF-TT;APFTT;Defaut de APF redonde;TK;FrtDRed;CTT.APF.LRM.M2.TK.FrtDRed;DB_BTK_LRM_2.TK.APF_LRM_M2_FrtDRed;Booleen;APFTT_LRM_M2;PCC_LRM;SIA_CATS_NIV1_M2
APF-TT;APFTT;APFTT Actif;TK;APFAct;Message de Service;DB_BTK_LRM_2.TK.APF_LRM_M2_APFAct;Booleen;APFTT_LRM_M2;PCC_LRM;SIA_CATS_NIV1_M2
APF-TT;APFTT;APFTT Non actif;TK;APFPas;Message de Service;DB_BTK_LRM_2.TK.APF_LRM_M2_APFPas;Booleen;APFTT_LRM_M2;PCC_LRM;SIA_CATS_NIV1_M2
APF-TT;APFTT;APFTT Defaut;TK;APFDef;Message de Service;DB_BTK_LRM_2.TK.APF_LRM_M2_APFDef;Booleen;APFTT_LRM_M2;PCC_LRM;SIA_CATS_NIV1_M2
APF-TT;APFTT;Defaut cable Ethernet;TK;DefEth;CTT.APF.STC.M1.TK.DefEth;DB_BTK_STC_1.TK.APF_STC_M1_DefEth;Booleen;APFTT_STC_M1;PCC_STC;SIA_CATS_NIV1_M1
APF-TT;APFTT;Defaut de APF redonde;TK;FrtDRed;CTT.APF.STC.M1.TK.FrtDRed;DB_BTK_STC_1.TK.APF_STC_M1_FrtDRed;Booleen;APFTT_STC_M1;PCC_STC;SIA_CATS_NIV1_M1
APF-TT;APFTT;APFTT Actif;TK;APFAct;Message de Service;DB_BTK_STC_1.TK.APF_STC_M1_APFAct;Booleen;APFTT_STC_M1;PCC_STC;SIA_CATS_NIV1_M1
APF-TT;APFTT;APFTT Non actif;TK;APFPas;Message de Service;DB_BTK_STC_1.TK.APF_STC_M1_APFPas;Booleen;APFTT_STC_M1;PCC_STC;SIA_CATS_NIV1_M1
APF-TT;APFTT;APFTT Defaut;TK;APFDef;Message de Service;DB_BTK_STC_1.TK.APF_STC_M1_APFDef;Booleen;APFTT_STC_M1;PCC_STC;SIA_CATS_NIV1_M1
APF-TT;APFTT;Defaut cable Ethernet;TK;DefEth;CTT.APF.STC.M2.TK.DefEth;DB_BTK_STC_2.TK.APF_STC_M2_DefEth;Booleen;APFTT_STC_M2;PCC_STC;SIA_CATS_NIV1_M2
APF-TT;APFTT;Defaut de APF redonde;TK;FrtDRed;CTT.APF.STC.M2.TK.FrtDRed;DB_BTK_STC_2.TK.APF_STC_M2_FrtDRed;Booleen;APFTT_STC_M2;PCC_STC;SIA_CATS_NIV1_M2
APF-TT;APFTT;APFTT Actif;TK;APFAct;Message de Service;DB_BTK_STC_2.TK.APF_STC_M2_APFAct;Booleen;APFTT_STC_M2;PCC_STC;SIA_CATS_NIV1_M2
APF-TT;APFTT;APFTT Non actif;TK;APFPas;Message de Service;DB_BTK_STC_2.TK.APF_STC_M2_APFPas;Booleen;APFTT_STC_M2;PCC_STC;SIA_CATS_NIV1_M2
APF-TT;APFTT;APFTT Defaut;TK;APFDef;Message de Service;DB_BTK_STC_2.TK.APF_STC_M2_APFDef;Booleen;APFTT_STC_M2;PCC_STC;SIA_CATS_NIV1_M2
Automates API-TT ou MESD;Automate;Defaut Communication Automate;TK;AutDLiai;CTT.AUT.5AV.TT_70.TK.AutDLiai;DB_BTK_5AV_70.TK.AUT_5AV_TT_70_AutDLiai;Booleen;AUT_APITT_5AV_TT_70;PET_5AV_M1;SIA_CATS_NIV1_M1
Automates API-TT ou MESD;Automate;Defaut Communication Automate;TK;AutDLiai;CTT.AUT.ARM.TT_82.TK.AutDLiai;DB_BTK_ARM_82.TK.AUT_ARM_TT_82_AutDLiai;Booleen;AUT_APITT_ARM_TT_82;PET_ARM_M1;SIA_CATS_NIV1_M1
Automates API-TT ou MESD;Automate;Defaut Communication Automate;TK;AutDLiai;CTT.AUT.BAI.TT_79.TK.AutDLiai;DB_BTK_BAI_79.TK.AUT_BAI_TT_79_AutDLiai;Booleen;AUT_APITT_BAI_TT_79;PET_BAI_M1;SIA_CATS_NIV1_M1
Automates API-TT ou MESD;Automate;Defaut Communication Automate;TK;AutDLiai;CTT.AUT.BLA.TT_81.TK.AutDLiai;DB_BTK_BLA_81.TK.AUT_BLA_TT_81_AutDLiai;Booleen;AUT_APITT_BLA_TT_81;PET_BLA_M1;SIA_CATS_NIV1_M1
Automates API-TT ou MESD;Automate;Defaut Communication Automate;TK;AutDLiai;CTT.AUT.BOU.TT_96.TK.AutDLiai;DB_BTK_BOU_96.TK.AUT_BOU_TT_96_AutDLiai;Booleen;AUT_APITT_BOU_TT_96;PET_BOU_M2;SIA_CATS_NIV1_M2
Automates API-TT ou MESD;Automate;Defaut Communication Automate;TK;AutDLiai;CTT.AUT.CAS.TT_77.TK.AutDLiai;DB_BTK_CAS_77.TK.AUT_CAS_TT_77_AutDLiai;Booleen;AUT_APITT_CAS_TT_77;PET_CAS_M1;SIA_CATS_NIV1_M1
Automates API-TT ou MESD;Automate;Defaut Communication Automate;TK;AutDLiai;CTT.AUT.CAS.TT_78.TK.AutDLiai;DB_BTK_CAS_78.TK.AUT_CAS_TT_78_AutDLiai;Booleen;AUT_APITT_CAS_TT_78;PET_CAS_M1;SIA_CATS_NIV1_M1
Automates API-TT ou MESD;Automate;Defaut Communication Automate;TK;AutDLiai;CTT.AUT.CHA.TT_69.TK.AutDLiai;DB_BTK_CHA_69.TK.AUT_CHA_TT_69_AutDLiai;Booleen;AUT_APITT_CHA_TT_69;PET_CHA_M1;SIA_CATS_NIV1_M1
Automates API-TT ou MESD;Automate;Defaut Communication Automate;TK;AutDLiai;CTT.AUT.CLA.TT_92.TK.AutDLiai;DB_BTK_CLA_92.TK.AUT_CLA_TT_92_AutDLiai;Booleen;AUT_APITT_CLA_TT_92;PET_CLA_M2;SIA_CATS_NIV1_M2
Automates API-TT ou MESD;Automate;Defaut Communication Automate;TK;AutDLiai;CTT.AUT.COL.TT_74.TK.AutDLiai;DB_BTK_COL_74.TK.AUT_COL_TT_74_AutDLiai;Booleen;AUT_APITT_COL_TT_74;PET_COL_M1;SIA_CATS_NIV1_M1
Automates API-TT ou MESD;Automate;Defaut Communication Automate;TK;AutDLiai;CTT.AUT.EST.TT_76.TK.AutDLiai;DB_BTK_EST_76.TK.AUT_EST_TT_76_AutDLiai;Booleen;AUT_APITT_EST_TT_76;PET_EST_M1;SIA_CATS_NIV1_M1
Automates API-TT ou MESD;Automate;Defaut Communication Automate;TK;AutDLiai;CTT.AUT.FOU.TT_84.TK.AutDLiai;DB_BTK_FOU_84.TK.AUT_FOU_TT_84_AutDLiai;Booleen;AUT_APITT_FOU_TT_84;PET_FOU_M1;SIA_CATS_NIV1_M1
Automates API-TT ou MESD;Automate;Defaut Communication Automate;TK;AutDLiai;CTT.AUT.FVA.TT_66.TK.AutDLiai;DB_BTK_FVA_66.TK.AUT_FVA_TT_66_AutDLiai;Booleen;AUT_APITT_FVA_TT_66;PET_FVA_M1;SIA_CATS_NIV1_M1
Automates API-TT ou MESD;Automate;Defaut Communication Automate;TK;AutDLiai;CTT.AUT.GEZ.TT_97.TK.AutDLiai;DB_BTK_GEZ_97.TK.AUT_GEZ_TT_97_AutDLiai;Booleen;AUT_APITT_GEZ_TT_97;PET_GEZ_M2;SIA_CATS_NIV1_M2
Automates API-TT ou MESD;Automate;Defaut Communication Automate;TK;AutDLiai;CTT.AUT.JGU.TT_90.TK.AutDLiai;DB_BTK_JGU_90.TK.AUT_JGU_TT_90_AutDLiai;Booleen;AUT_APITT_JGU_TT_90;PET_JGU_M2;SIA_CATS_NIV1_M2
Automates API-TT ou MESD;Automate;Defaut Communication Automate;TK;AutDLiai;CTT.AUT.JOL.TT_91.TK.AutDLiai;DB_BTK_JOL_91.TK.AUT_JOL_TT_91_AutDLiai;Booleen;AUT_APITT_JOL_TT_91;PET_JOL_M2;SIA_CATS_NIV1_M2
Automates API-TT ou MESD;Automate;Defaut Communication Automate;TK;AutDLiai;CTT.AUT.LRM.TT_95.TK.AutDLiai;DB_BTK_LRM_99.TK.AUT_LRM_TT_95_AutDLiai;Booleen;AUT_APITT_LRM_TT_95;PET_LRM_M1;SIA_CATS_NIV1_M1
Automates API-TT ou MESD;Automate;Defaut Communication Automate;TK;AutDLiai;CTT.AUT.MAL.TT_67.TK.AutDLiai;DB_BTK_MAL_67.TK.AUT_MAL_TT_67_AutDLiai;Booleen;AUT_APITT_MAL_TT_67;PET_MAL_M1;SIA_CATS_NIV1_M1
Automates API-TT ou MESD;Automate;Defaut Communication Automate;TK;AutDLiai;CTT.AUT.NAT.TT_93.TK.AutDLiai;DB_BTK_NAT_93.TK.AUT_NAT_TT_93_AutDLiai;Booleen;AUT_APITT_NAT_TT_93;PET_NAT_M2;SIA_CATS_NIV1_M2
Automates API-TT ou MESD;Automate;Defaut Communication Automate;TK;AutDLiai;CTT.AUT.NDM.TT_88.TK.AutDLiai;DB_BTK_NDM_88.TK.AUT_NDM_TT_88_AutDLiai;Booleen;AUT_APITT_NDM_TT_88;PET_NDM_M2;SIA_CATS_NIV1_M2
Automates API-TT ou MESD;Automate;Defaut Communication Automate;TK;AutDLiai;CTT.AUT.NOA.TT_89.TK.AutDLiai;DB_BTK_NOA_89.TK.AUT_NOA_TT_89_AutDLiai;Booleen;AUT_APITT_NOA_TT_89;PET_NOA_M2;SIA_CATS_NIV1_M2
Automates API-TT ou MESD;Automate;Defaut Communication Automate;TK;AutDLiai;CTT.AUT.PER.TT_87.TK.AutDLiai;DB_BTK_PER_87.TK.AUT_PER_TT_87_AutDLiai;Booleen;AUT_APITT_PER_TT_87;PET_PER_M2;SIA_CATS_NIV1_M2
Automates API-TT ou MESD;Automate;Defaut Communication Automate;TK;AutDLiai;CTT.AUT.REF.TT_71.TK.AutDLiai;DB_BTK_REF_71.TK.AUT_REF_TT_71_AutDLiai;Booleen;AUT_APITT_REF_TT_71;PET_REF_M1;SIA_CATS_NIV1_M1
Automates API-TT ou MESD;Automate;Defaut Communication Automate;TK;AutDLiai;CTT.AUT.RPP.TT_86.TK.AutDLiai;DB_BTK_RPP_86.TK.AUT_RPP_TT_86_AutDLiai;Booleen;AUT_APITT_RPP_TT_86;PET_RPP_M2;SIA_CATS_NIV1_M2
Automates API-TT ou MESD;Automate;Defaut Communication Automate;TK;AutDLiai;CTT.AUT.STB.TT_83.TK.AutDLiai;DB_BTK_STB_83.TK.AUT_STB_TT_83_AutDLiai;Booleen;AUT_APITT_STB_TT_83;PET_STB_M1;SIA_CATS_NIV1_M1
Automates API-TT ou MESD;Automate;Defaut Communication Automate;TK;AutDLiai;CTT.AUT.STC.TT_72.TK.AutDLiai;DB_BTK_STC_72.TK.AUT_STC_TT_72_AutDLiai;Booleen;AUT_APITT_STC_TT_72;PET_STC_M1;SIA_CATS_NIV1_M1
Automates API-TT ou MESD;Automate;Defaut Communication Automate;TK;AutDLiai;CTT.AUT.STJ.TT_68.TK.AutDLiai;DB_BTK_STJ_68.TK.AUT_STJ_TT_68_AutDLiai;Booleen;AUT_APITT_STJ_TT_68;PET_STJ_M1;SIA_CATS_NIV1_M1
Automates API-TT ou MESD;Automate;Defaut Communication Automate;TK;AutDLiai;CTT.AUT.STM.TT_85.TK.AutDLiai;DB_BTK_STM_85.TK.AUT_STM_TT_85_AutDLiai;Booleen;AUT_APITT_STM_TT_85;PET_STM_M2;SIA_CATS_NIV1_M2
Automates API-TT ou MESD;Automate;Defaut Communication Automate;TK;AutDLiai;CTT.AUT.TIM.TT_80.TK.AutDLiai;DB_BTK_TIM_80.TK.AUT_TIM_TT_80_AutDLiai;Booleen;AUT_APITT_TIM_TT_80;PET_TIM_M1;SIA_CATS_NIV1_M1
Automates API-TT ou MESD;Automate;Defaut Communication Automate;TK;AutDLiai;CTT.AUT.VPT.TT_75.TK.AutDLiai;DB_BTK_VPT_75.TK.AUT_VPT_TT_75_AutDLiai;Booleen;AUT_APITT_VPT_TT_75;PET_VPT_M1;SIA_CATS_NIV1_M1
Automates API-TT ou MESD;Automate;Defaut Communication Automate;TK;AutDLiai;CTT.AUT.VPT.TT_99.TK.AutDLiai;DB_BTK_VPT_99.TK.AUT_VPT_TT_99_AutDLiai;Booleen;AUT_APITT_VPT_TT_99;PET_VPT_M1;SIA_CATS_NIV1_M1
Automates API-TT ou MESD;Automate;Defaut Communication Automate;TK;AutDLiai;CTT.AUT.BOU.BOR_11.TK.AutDLiai;DB_BTK_BOU_11.TK.AUT_BOU_BOR_11_AutDLiai;Booleen;AUT_MESD_BOU_BOR_11;PET_BOU_M2;SIA_CATS_NIV1_M2
Automates API-TT ou MESD;Automate;Defaut Synthese Carte;TK;DefSynCar;CTT.AUT.BOU.BOR_11.TK.DefSynCar;DB_BTK_BOU_11.TK.AUT_BOU_BOR_11_DefSynCar;Booleen;AUT_MESD_BOU_BOR_11;PET_BOU_M2;SIA_CATS_NIV1_M2
Automates API-TT ou MESD;Automate;Defaut Communication Automate;TK;AutDLiai;CTT.AUT.LRM.BOR_3.TK.AutDLiai;DB_BTK_LRM_3.TK.AUT_LRM_BOR_3_AutDLiai;Booleen;AUT_MESD_LRM_BOR_3;PET_LRM_M1;SIA_CATS_NIV1_M1
Automates API-TT ou MESD;Automate;Defaut Synthese Carte;TK;DefSynCar;CTT.AUT.LRM.BOR_3.TK.DefSynCar;DB_BTK_LRM_3.TK.AUT_LRM_BOR_3_DefSynCar;Booleen;AUT_MESD_LRM_BOR_3;PET_LRM_M1;SIA_CATS_NIV1_M1
Automates API-TT ou MESD;Automate;Defaut Communication Automate;TK;AutDLiai;CTT.AUT.LRM.BOR_4.TK.AutDLiai;DB_BTK_LRM_4.TK.AUT_LRM_BOR_4_AutDLiai;Booleen;AUT_MESD_LRM_BOR_4;PET_LRM_M1;SIA_CATS_NIV1_M1
Automates API-TT ou MESD;Automate;Defaut Synthese Carte;TK;DefSynCar;CTT.AUT.LRM.BOR_4.TK.DefSynCar;DB_BTK_LRM_4.TK.AUT_LRM_BOR_4_DefSynCar;Booleen;AUT_MESD_LRM_BOR_4;PET_LRM_M1;SIA_CATS_NIV1_M1
Automates API-TT ou MESD;Automate;Defaut Communication Automate;TK;AutDLiai;CTT.AUT.LRM.BOR_8.TK.AutDLiai;DB_BTK_LRM_8.TK.AUT_LRM_BOR_8_AutDLiai;Booleen;AUT_MESD_LRM_BOR_8;PET_LRM_M1;SIA_CATS_NIV1_M1
Automates API-TT ou MESD;Automate;Defaut Synthese Carte;TK;DefSynCar;CTT.AUT.LRM.BOR_8.TK.DefSynCar;DB_BTK_LRM_8.TK.AUT_LRM_BOR_8_DefSynCar;Booleen;AUT_MESD_LRM_BOR_8;PET_LRM_M1;SIA_CATS_NIV1_M1
Automates API-TT ou MESD;Automate;Defaut Communication Automate;TK;AutDLiai;CTT.AUT.ZOC.BOR_12.TK.AutDLiai;DB_BTK_ZOC_12.TK.AUT_ZOC_BOR_12_AutDLiai;Booleen;AUT_MESD_ZOC_BOR_12;PET_ZOC_M2;SIA_CATS_NIV1_M2
Automates API-TT ou MESD;Automate;Defaut Synthese Carte;TK;DefSynCar;CTT.AUT.ZOC.BOR_12.TK.DefSynCar;DB_BTK_ZOC_12.TK.AUT_ZOC_BOR_12_DefSynCar;Booleen;AUT_MESD_ZOC_BOR_12;PET_ZOC_M2;SIA_CATS_NIV1_M2
Automates API-TT ou MESD;Automate;Defaut Communication Automate;TK;AutDLiai;CTT.AUT.ZOC.BOR_13.TK.AutDLiai;DB_BTK_ZOC_13.TK.AUT_ZOC_BOR_13_AutDLiai;Booleen;AUT_MESD_ZOC_BOR_13;PET_ZOC_M2;SIA_CATS_NIV1_M2
Automates API-TT ou MESD;Automate;Defaut Synthese Carte;TK;DefSynCar;CTT.AUT.ZOC.BOR_13.TK.DefSynCar;DB_BTK_ZOC_13.TK.AUT_ZOC_BOR_13_DefSynCar;Booleen;AUT_MESD_ZOC_BOR_13;PET_ZOC_M2;SIA_CATS_NIV1_M2
Automates API-TT ou MESD;Automate;Defaut Communication Automate;TK;AutDLiai;CTT.AUT.ZOC.BOR_3.TK.AutDLiai;DB_BTK_ZOC_3.TK.AUT_ZOC_BOR_3_AutDLiai;Booleen;AUT_MESD_ZOC_BOR_3;PET_ZOC_M2;SIA_CATS_NIV1_M2
Automates API-TT ou MESD;Automate;Defaut Synthese Carte;TK;DefSynCar;CTT.AUT.ZOC.BOR_3.TK.DefSynCar;DB_BTK_ZOC_3.TK.AUT_ZOC_BOR_3_DefSynCar;Booleen;AUT_MESD_ZOC_BOR_3;PET_ZOC_M2;SIA_CATS_NIV1_M2
Automates API-TT ou MESD;Automate;Defaut Communication Automate;TK;AutDLiai;CTT.AUT.ZOC.BOR_4.TK.AutDLiai;DB_BTK_ZOC_4.TK.AUT_ZOC_BOR_4_AutDLiai;Booleen;AUT_MESD_ZOC_BOR_4;PET_ZOC_M2;SIA_CATS_NIV1_M2
Automates API-TT ou MESD;Automate;Defaut Synthese Carte;TK;DefSynCar;CTT.AUT.ZOC.BOR_4.TK.DefSynCar;DB_BTK_ZOC_4.TK.AUT_ZOC_BOR_4_DefSynCar;Booleen;AUT_MESD_ZOC_BOR_4;PET_ZOC_M2;SIA_CATS_NIV1_M2
Automates API-TT ou MESD;Automate;Defaut Communication Automate;TK;AutDLiai;CTT.AUT.ZOC.BOR_5.TK.AutDLiai;DB_BTK_ZOC_5.TK.AUT_ZOC_BOR_5_AutDLiai;Booleen;AUT_MESD_ZOC_BOR_5;PET_ZOC_M2;SIA_CATS_NIV1_M2
Automates API-TT ou MESD;Automate;Defaut Synthese Carte;TK;DefSynCar;CTT.AUT.ZOC.BOR_5.TK.DefSynCar;DB_BTK_ZOC_5.TK.AUT_ZOC_BOR_5_DefSynCar;Booleen;AUT_MESD_ZOC_BOR_5;PET_ZOC_M2;SIA_CATS_NIV1_M2
Automates API-TT ou MESD;Automate;Defaut Communication Automate;TK;AutDLiai;CTT.AUT.ZOC.BOR_6.TK.AutDLiai;DB_BTK_ZOC_6.TK.AUT_ZOC_BOR_6_AutDLiai;Booleen;AUT_MESD_ZOC_BOR_6;PET_ZOC_M2;SIA_CATS_NIV1_M2
Automates API-TT ou MESD;Automate;Defaut Synthese Carte;TK;DefSynCar;CTT.AUT.ZOC.BOR_6.TK.DefSynCar;DB_BTK_ZOC_6.TK.AUT_ZOC_BOR_6_DefSynCar;Booleen;AUT_MESD_ZOC_BOR_6;PET_ZOC_M2;SIA_CATS_NIV1_M2
Automates API-TT ou MESD;Automate;Defaut Communication Automate;TK;AutDLiai;CTT.AUT.ZOC.BOR_7.TK.AutDLiai;DB_BTK_ZOC_7.TK.AUT_ZOC_BOR_7_AutDLiai;Booleen;AUT_MESD_ZOC_BOR_7;PET_ZOC_M2;SIA_CATS_NIV1_M2
Automates API-TT ou MESD;Automate;Defaut Synthese Carte;TK;DefSynCar;CTT.AUT.ZOC.BOR_7.TK.DefSynCar;DB_BTK_ZOC_7.TK.AUT_ZOC_BOR_7_DefSynCar;Booleen;AUT_MESD_ZOC_BOR_7;PET_ZOC_M2;SIA_CATS_NIV1_M2
Cartes des automates;Carte;Defaut Carte Communication;TK;CarDef;CTT.CAR.5AV.TT70_2.TK.CarDef;DB_BTK_5AV_70.TK.CAR_5AV_TT70_2_CarDef;Booleen;CAR_APITT_5AV_TT70_2;PET_5AV_M1;SIA_CATS_NIV1_M1
Cartes des automates;Carte;Defaut Carte Communication;TK;CarDef;CTT.CAR.ARM.TT82_2.TK.CarDef;DB_BTK_ARM_82.TK.CAR_ARM_TT82_2_CarDef;Booleen;CAR_APITT_ARM_TT82_2;PET_ARM_M1;SIA_CATS_NIV1_M1
Cartes des automates;Carte;Defaut Carte Communication;TK;CarDef;CTT.CAR.BAI.TT79_2.TK.CarDef;DB_BTK_BAI_79.TK.CAR_BAI_TT79_2_CarDef;Booleen;CAR_APITT_BAI_TT79_2;PET_BAI_M1;SIA_CATS_NIV1_M1
Cartes des automates;Carte;Defaut Carte Communication;TK;CarDef;CTT.CAR.BLA.TT81_2.TK.CarDef;DB_BTK_BLA_81.TK.CAR_BLA_TT81_2_CarDef;Booleen;CAR_APITT_BLA_TT81_2;PET_BLA_M1;SIA_CATS_NIV1_M1
Cartes des automates;Carte;Defaut Carte Communication;TK;CarDef;CTT.CAR.BOU.TT96_2.TK.CarDef;DB_BTK_BOU_96.TK.CAR_BOU_TT96_2_CarDef;Booleen;CAR_APITT_BOU_TT96_2;PET_BOU_M2;SIA_CATS_NIV1_M2
Cartes des automates;Carte;Defaut Carte Communication;TK;CarDef;CTT.CAR.CAS.TT77_2.TK.CarDef;DB_BTK_CAS_77.TK.CAR_CAS_TT77_2_CarDef;Booleen;CAR_APITT_CAS_TT77_2;PET_CAS_M1;SIA_CATS_NIV1_M1
Cartes des automates;Carte;Defaut Carte Communication;TK;CarDef;CTT.CAR.CAS.TT78_2.TK.CarDef;DB_BTK_CAS_78.TK.CAR_CAS_TT78_2_CarDef;Booleen;CAR_APITT_CAS_TT78_2;PET_CAS_M1;SIA_CATS_NIV1_M1
Cartes des automates;Carte;Defaut Carte Communication;TK;CarDef;CTT.CAR.CHA.TT69_2.TK.CarDef;DB_BTK_CHA_69.TK.CAR_CHA_TT69_2_CarDef;Booleen;CAR_APITT_CHA_TT69_2;PET_CHA_M1;SIA_CATS_NIV1_M1
Cartes des automates;Carte;Defaut Carte Communication;TK;CarDef;CTT.CAR.CHA.TT69_3.TK.CarDef;DB_BTK_CHA_69.TK.CAR_CHA_TT69_3_CarDef;Booleen;CAR_APITT_CHA_TT69_3;PET_CHA_M1;SIA_CATS_NIV1_M1
Cartes des automates;Carte;Defaut Carte Communication;TK;CarDef;CTT.CAR.CLA.TT92_2.TK.CarDef;DB_BTK_CLA_92.TK.CAR_CLA_TT92_2_CarDef;Booleen;CAR_APITT_CLA_TT92_2;PET_CLA_M2;SIA_CATS_NIV1_M2
Cartes des automates;Carte;Defaut Carte Communication;TK;CarDef;CTT.CAR.COL.TT74_2.TK.CarDef;DB_BTK_COL_74.TK.CAR_COL_TT74_2_CarDef;Booleen;CAR_APITT_COL_TT74_2;PET_COL_M1;SIA_CATS_NIV1_M1
Cartes des automates;Carte;Defaut Carte Communication;TK;CarDef;CTT.CAR.EST.TT76_2.TK.CarDef;DB_BTK_EST_76.TK.CAR_EST_TT76_2_CarDef;Booleen;CAR_APITT_EST_TT76_2;PET_EST_M1;SIA_CATS_NIV1_M1
Cartes des automates;Carte;Defaut Carte Communication;TK;CarDef;CTT.CAR.FOU.TT84_2.TK.CarDef;DB_BTK_FOU_84.TK.CAR_FOU_TT84_2_CarDef;Booleen;CAR_APITT_FOU_TT84_2;PET_FOU_M1;SIA_CATS_NIV1_M1
Cartes des automates;Carte;Defaut Carte Communication;TK;CarDef;CTT.CAR.FVA.TT66_2.TK.CarDef;DB_BTK_FVA_66.TK.CAR_FVA_TT66_2_CarDef;Booleen;CAR_APITT_FVA_TT66_2;PET_FVA_M1;SIA_CATS_NIV1_M1
Cartes des automates;Carte;Defaut Carte Communication;TK;CarDef;CTT.CAR.GEZ.TT97_1.TK.CarDef;DB_BTK_GEZ_97.TK.CAR_GEZ_TT97_1_CarDef;Booleen;CAR_APITT_GEZ_TT97_1;PET_GEZ_M2;SIA_CATS_NIV1_M2
Cartes des automates;Carte;Defaut Carte Communication;TK;CarDef;CTT.CAR.JGU.TT90_2.TK.CarDef;DB_BTK_JGU_90.TK.CAR_JGU_TT90_2_CarDef;Booleen;CAR_APITT_JGU_TT90_2;PET_JGU_M2;SIA_CATS_NIV1_M2
Cartes des automates;Carte;Defaut Carte Communication;TK;CarDef;CTT.CAR.JOL.TT91_2.TK.CarDef;DB_BTK_JOL_91.TK.CAR_JOL_TT91_2_CarDef;Booleen;CAR_APITT_JOL_TT91_2;PET_JOL_M2;SIA_CATS_NIV1_M2
Cartes des automates;Carte;Defaut Carte Communication;TK;CarDef;CTT.CAR.LRM.TT95_2.TK.CarDef;DB_BTK_LRM_99.TK.CAR_LRM_TT95_2_CarDef;Booleen;CAR_APITT_LRM_TT95_2;PET_LRM_M1;SIA_CATS_NIV1_M1
Cartes des automates;Carte;Defaut Carte Communication;TK;CarDef;CTT.CAR.LRM.TT95_3.TK.CarDef;DB_BTK_LRM_99.TK.CAR_LRM_TT95_3_CarDef;Booleen;CAR_APITT_LRM_TT95_3;PET_LRM_M1;SIA_CATS_NIV1_M1
Cartes des automates;Carte;Defaut Carte Communication;TK;CarDef;CTT.CAR.LRM.TT95_4.TK.CarDef;DB_BTK_LRM_99.TK.CAR_LRM_TT95_4_CarDef;Booleen;CAR_APITT_LRM_TT95_4;PET_LRM_M1;SIA_CATS_NIV1_M1
Cartes des automates;Carte;Defaut Carte Communication;TK;CarDef;CTT.CAR.LRM.TT95_5.TK.CarDef;DB_BTK_LRM_99.TK.CAR_LRM_TT95_5_CarDef;Booleen;CAR_APITT_LRM_TT95_5;PET_LRM_M1;SIA_CATS_NIV1_M1
Cartes des automates;Carte;Defaut Carte Communication;TK;CarDef;CTT.CAR.LRM.TT95_6.TK.CarDef;DB_BTK_LRM_99.TK.CAR_LRM_TT95_6_CarDef;Booleen;CAR_APITT_LRM_TT95_6;PET_LRM_M1;SIA_CATS_NIV1_M1
Cartes des automates;Carte;Defaut Carte Communication;TK;CarDef;CTT.CAR.LRM.TT95_7.TK.CarDef;DB_BTK_LRM_99.TK.CAR_LRM_TT95_7_CarDef;Booleen;CAR_APITT_LRM_TT95_7;PET_LRM_M1;SIA_CATS_NIV1_M1
Cartes des automates;Carte;Defaut Carte Communication;TK;CarDef;CTT.CAR.MAL.TT67_2.TK.CarDef;DB_BTK_MAL_67.TK.CAR_MAL_TT67_2_CarDef;Booleen;CAR_APITT_MAL_TT67_2;PET_MAL_M1;SIA_CATS_NIV1_M1
Cartes des automates;Carte;Defaut Carte Communication;TK;CarDef;CTT.CAR.NAT.TT93_2.TK.CarDef;DB_BTK_NAT_93.TK.CAR_NAT_TT93_2_CarDef;Booleen;CAR_APITT_NAT_TT93_2;PET_NAT_M2;SIA_CATS_NIV1_M2
Cartes des automates;Carte;Defaut Carte Communication;TK;CarDef;CTT.CAR.NDM.TT88_2.TK.CarDef;DB_BTK_NDM_88.TK.CAR_NDM_TT88_2_CarDef;Booleen;CAR_APITT_NDM_TT88_2;PET_NDM_M2;SIA_CATS_NIV1_M2
Cartes des automates;Carte;Defaut Carte Communication;TK;CarDef;CTT.CAR.NOA.TT89_2.TK.CarDef;DB_BTK_NOA_89.TK.CAR_NOA_TT89_2_CarDef;Booleen;CAR_APITT_NOA_TT89_2;PET_NOA_M2;SIA_CATS_NIV1_M2
Cartes des automates;Carte;Defaut Carte Communication;TK;CarDef;CTT.CAR.PER.TT87_2.TK.CarDef;DB_BTK_PER_87.TK.CAR_PER_TT87_2_CarDef;Booleen;CAR_APITT_PER_TT87_2;PET_PER_M2;SIA_CATS_NIV1_M2
Cartes des automates;Carte;Defaut Carte Communication;TK;CarDef;CTT.CAR.REF.TT71_2.TK.CarDef;DB_BTK_REF_71.TK.CAR_REF_TT71_2_CarDef;Booleen;CAR_APITT_REF_TT71_2;PET_REF_M1;SIA_CATS_NIV1_M1
Cartes des automates;Carte;Defaut Carte Communication;TK;CarDef;CTT.CAR.RPP.TT86_2.TK.CarDef;DB_BTK_RPP_86.TK.CAR_RPP_TT86_2_CarDef;Booleen;CAR_APITT_RPP_TT86_2;PET_RPP_M2;SIA_CATS_NIV1_M2
Cartes des automates;Carte;Defaut Carte Communication;TK;CarDef;CTT.CAR.STB.TT83_2.TK.CarDef;DB_BTK_STB_83.TK.CAR_STB_TT83_2_CarDef;Booleen;CAR_APITT_STB_TT83_2;PET_STB_M1;SIA_CATS_NIV1_M1
Cartes des automates;Carte;Defaut Carte Communication;TK;CarDef;CTT.CAR.STC.TT72_2.TK.CarDef;DB_BTK_STC_72.TK.CAR_STC_TT72_2_CarDef;Booleen;CAR_APITT_STC_TT72_2;PET_STC_M1;SIA_CATS_NIV1_M1
Cartes des automates;Carte;Defaut Carte Communication;TK;CarDef;CTT.CAR.STC.TT72_3.TK.CarDef;DB_BTK_STC_73.TK.CAR_STC_TT72_3_CarDef;Booleen;CAR_APITT_STC_TT72_3;PET_STC_M1;SIA_CATS_NIV1_M1
Cartes des automates;Carte;Defaut Carte Communication;TK;CarDef;CTT.CAR.STJ.TT68_2.TK.CarDef;DB_BTK_STJ_68.TK.CAR_STJ_TT68_2_CarDef;Booleen;CAR_APITT_STJ_TT68_2;PET_STJ_M1;SIA_CATS_NIV1_M1
Cartes des automates;Carte;Defaut Carte Communication;TK;CarDef;CTT.CAR.STM.TT85_2.TK.CarDef;DB_BTK_STM_85.TK.CAR_STM_TT85_2_CarDef;Booleen;CAR_APITT_STM_TT85_2;PET_STM_M2;SIA_CATS_NIV1_M2
Cartes des automates;Carte;Defaut Carte Communication;TK;CarDef;CTT.CAR.TIM.TT80_2.TK.CarDef;DB_BTK_TIM_80.TK.CAR_TIM_TT80_2_CarDef;Booleen;CAR_APITT_TIM_TT80_2;PET_TIM_M1;SIA_CATS_NIV1_M1
Cartes des automates;Carte;Defaut Carte Communication;TK;CarDef;CTT.CAR.VPT.TT75_2.TK.CarDef;DB_BTK_VPT_75.TK.CAR_VPT_TT75_2_CarDef;Booleen;CAR_APITT_VPT_TT75_2;PET_VPT_M1;SIA_CATS_NIV1_M1
Cartes des automates;Carte;Defaut Carte Communication;TK;CarDef;CTT.CAR.BOU.BOR11_1.TK.CarDef;DB_BTK_BOU_11.TK.CAR_BOU_BOR11_1_CarDef;Booleen;CAR_MESD_BOU_BOR11_1;PET_BOU_M2;SIA_CATS_NIV1_M2
Cartes des automates;Carte;Defaut Carte Communication;TK;CarDef;CTT.CAR.BOU.BOR11_2.TK.CarDef;DB_BTK_BOU_11.TK.CAR_BOU_BOR11_2_CarDef;Booleen;CAR_MESD_BOU_BOR11_2;PET_BOU_M2;SIA_CATS_NIV1_M2
Cartes des automates;Carte;Defaut Carte Communication;TK;CarDef;CTT.CAR.BOU.BOR11_3.TK.CarDef;DB_BTK_BOU_11.TK.CAR_BOU_BOR11_3_CarDef;Booleen;CAR_MESD_BOU_BOR11_3;PET_BOU_M2;SIA_CATS_NIV1_M2
Cartes des automates;Carte;Defaut Carte Communication;TK;CarDef;CTT.CAR.BOU.BOR11_4.TK.CarDef;DB_BTK_BOU_11.TK.CAR_BOU_BOR11_4_CarDef;Booleen;CAR_MESD_BOU_BOR11_4;PET_BOU_M2;SIA_CATS_NIV1_M2
Cartes des automates;Carte;Defaut Carte Communication;TK;CarDef;CTT.CAR.BOU.BOR11_5.TK.CarDef;DB_BTK_BOU_11.TK.CAR_BOU_BOR11_5_CarDef;Booleen;CAR_MESD_BOU_BOR11_5;PET_BOU_M2;SIA_CATS_NIV1_M2
Cartes des automates;Carte;Defaut Carte Communication;TK;CarDef;CTT.CAR.BOU.BOR11_6.TK.CarDef;DB_BTK_BOU_11.TK.CAR_BOU_BOR11_6_CarDef;Booleen;CAR_MESD_BOU_BOR11_6;PET_BOU_M2;SIA_CATS_NIV1_M2
Cartes des automates;Carte;Defaut Carte Communication;TK;CarDef;CTT.CAR.LRM.BOR3_1.TK.CarDef;DB_BTK_LRM_3.TK.CAR_LRM_BOR3_1_CarDef;Booleen;CAR_MESD_LRM_BOR3_1;PET_LRM_M1;SIA_CATS_NIV1_M1
Cartes des automates;Carte;Defaut Carte Communication;TK;CarDef;CTT.CAR.LRM.BOR3_2.TK.CarDef;DB_BTK_LRM_3.TK.CAR_LRM_BOR3_2_CarDef;Booleen;CAR_MESD_LRM_BOR3_2;PET_LRM_M1;SIA_CATS_NIV1_M1
Cartes des automates;Carte;Defaut Carte Communication;TK;CarDef;CTT.CAR.LRM.BOR3_3.TK.CarDef;DB_BTK_LRM_3.TK.CAR_LRM_BOR3_3_CarDef;Booleen;CAR_MESD_LRM_BOR3_3;PET_LRM_M1;SIA_CATS_NIV1_M1
Cartes des automates;Carte;Defaut Carte Communication;TK;CarDef;CTT.CAR.LRM.BOR3_4.TK.CarDef;DB_BTK_LRM_3.TK.CAR_LRM_BOR3_4_CarDef;Booleen;CAR_MESD_LRM_BOR3_4;PET_LRM_M1;SIA_CATS_NIV1_M1
Cartes des automates;Carte;Defaut Carte Communication;TK;CarDef;CTT.CAR.LRM.BOR3_5.TK.CarDef;DB_BTK_LRM_3.TK.CAR_LRM_BOR3_5_CarDef;Booleen;CAR_MESD_LRM_BOR3_5;PET_LRM_M1;SIA_CATS_NIV1_M1
Cartes des automates;Carte;Defaut Carte Communication;TK;CarDef;CTT.CAR.LRM.BOR3_6.TK.CarDef;DB_BTK_LRM_3.TK.CAR_LRM_BOR3_6_CarDef;Booleen;CAR_MESD_LRM_BOR3_6;PET_LRM_M1;SIA_CATS_NIV1_M1
Cartes des automates;Carte;Defaut Carte Communication;TK;CarDef;CTT.CAR.LRM.BOR3_7.TK.CarDef;DB_BTK_LRM_3.TK.CAR_LRM_BOR3_7_CarDef;Booleen;CAR_MESD_LRM_BOR3_7;PET_LRM_M1;SIA_CATS_NIV1_M1
Cartes des automates;Carte;Defaut Carte Communication;TK;CarDef;CTT.CAR.LRM.BOR3_8.TK.CarDef;DB_BTK_LRM_3.TK.CAR_LRM_BOR3_8_CarDef;Booleen;CAR_MESD_LRM_BOR3_8;PET_LRM_M1;SIA_CATS_NIV1_M1
Cartes des automates;Carte;Defaut Carte Communication;TK;CarDef;CTT.CAR.LRM.BOR4_1.TK.CarDef;DB_BTK_LRM_4.TK.CAR_LRM_BOR4_1_CarDef;Booleen;CAR_MESD_LRM_BOR4_1;PET_LRM_M1;SIA_CATS_NIV1_M1
Cartes des automates;Carte;Defaut Carte Communication;TK;CarDef;CTT.CAR.LRM.BOR4_2.TK.CarDef;DB_BTK_LRM_4.TK.CAR_LRM_BOR4_2_CarDef;Booleen;CAR_MESD_LRM_BOR4_2;PET_LRM_M1;SIA_CATS_NIV1_M1
Cartes des automates;Carte;Defaut Carte Communication;TK;CarDef;CTT.CAR.LRM.BOR4_3.TK.CarDef;DB_BTK_LRM_4.TK.CAR_LRM_BOR4_3_CarDef;Booleen;CAR_MESD_LRM_BOR4_3;PET_LRM_M1;SIA_CATS_NIV1_M1
Cartes des automates;Carte;Defaut Carte Communication;TK;CarDef;CTT.CAR.LRM.BOR4_4.TK.CarDef;DB_BTK_LRM_4.TK.CAR_LRM_BOR4_4_CarDef;Booleen;CAR_MESD_LRM_BOR4_4;PET_LRM_M1;SIA_CATS_NIV1_M1
Cartes des automates;Carte;Defaut Carte Communication;TK;CarDef;CTT.CAR.LRM.BOR4_5.TK.CarDef;DB_BTK_LRM_4.TK.CAR_LRM_BOR4_5_CarDef;Booleen;CAR_MESD_LRM_BOR4_5;PET_LRM_M1;SIA_CATS_NIV1_M1
Cartes des automates;Carte;Defaut Carte Communication;TK;CarDef;CTT.CAR.LRM.BOR4_6.TK.CarDef;DB_BTK_LRM_4.TK.CAR_LRM_BOR4_6_CarDef;Booleen;CAR_MESD_LRM_BOR4_6;PET_LRM_M1;SIA_CATS_NIV1_M1
Cartes des automates;Carte;Defaut Carte Communication;TK;CarDef;CTT.CAR.LRM.BOR4_7.TK.CarDef;DB_BTK_LRM_4.TK.CAR_LRM_BOR4_7_CarDef;Booleen;CAR_MESD_LRM_BOR4_7;PET_LRM_M1;SIA_CATS_NIV1_M1
Cartes des automates;Carte;Defaut Carte Communication;TK;CarDef;CTT.CAR.LRM.BOR8_1.TK.CarDef;DB_BTK_LRM_8.TK.CAR_LRM_BOR8_1_CarDef;Booleen;CAR_MESD_LRM_BOR8_1;PET_LRM_M1;SIA_CATS_NIV1_M1
Cartes des automates;Carte;Defaut Carte Communication;TK;CarDef;CTT.CAR.LRM.BOR8_2.TK.CarDef;DB_BTK_LRM_8.TK.CAR_LRM_BOR8_2_CarDef;Booleen;CAR_MESD_LRM_BOR8_2;PET_LRM_M1;SIA_CATS_NIV1_M1
Cartes des automates;Carte;Defaut Carte Communication;TK;CarDef;CTT.CAR.ZOC.BOR12_1.TK.CarDef;DB_BTK_ZOC_12.TK.CAR_ZOC_BOR12_1_CarDef;Booleen;CAR_MESD_ZOC_BOR12_1;PET_ZOC_M2;SIA_CATS_NIV1_M2
Cartes des automates;Carte;Defaut Carte Communication;TK;CarDef;CTT.CAR.ZOC.BOR12_2.TK.CarDef;DB_BTK_ZOC_12.TK.CAR_ZOC_BOR12_2_CarDef;Booleen;CAR_MESD_ZOC_BOR12_2;PET_ZOC_M2;SIA_CATS_NIV1_M2
Cartes des automates;Carte;Defaut Carte Communication;TK;CarDef;CTT.CAR.ZOC.BOR12_3.TK.CarDef;DB_BTK_ZOC_12.TK.CAR_ZOC_BOR12_3_CarDef;Booleen;CAR_MESD_ZOC_BOR12_3;PET_ZOC_M2;SIA_CATS_NIV1_M2
Cartes des automates;Carte;Defaut Carte Communication;TK;CarDef;CTT.CAR.ZOC.BOR12_4.TK.CarDef;DB_BTK_ZOC_12.TK.CAR_ZOC_BOR12_4_CarDef;Booleen;CAR_MESD_ZOC_BOR12_4;PET_ZOC_M2;SIA_CATS_NIV1_M2
Cartes des automates;Carte;Defaut Carte Communication;TK;CarDef;CTT.CAR.ZOC.BOR12_5.TK.CarDef;DB_BTK_ZOC_12.TK.CAR_ZOC_BOR12_5_CarDef;Booleen;CAR_MESD_ZOC_BOR12_5;PET_ZOC_M2;SIA_CATS_NIV1_M2
Cartes des automates;Carte;Defaut Carte Communication;TK;CarDef;CTT.CAR.ZOC.BOR13_1.TK.CarDef;DB_BTK_ZOC_13.TK.CAR_ZOC_BOR13_1_CarDef;Booleen;CAR_MESD_ZOC_BOR13_1;PET_ZOC_M2;SIA_CATS_NIV1_M2
Cartes des automates;Carte;Defaut Carte Communication;TK;CarDef;CTT.CAR.ZOC.BOR13_2.TK.CarDef;DB_BTK_ZOC_13.TK.CAR_ZOC_BOR13_2_CarDef;Booleen;CAR_MESD_ZOC_BOR13_2;PET_ZOC_M2;SIA_CATS_NIV1_M2
Cartes des automates;Carte;Defaut Carte Communication;TK;CarDef;CTT.CAR.ZOC.BOR13_3.TK.CarDef;DB_BTK_ZOC_13.TK.CAR_ZOC_BOR13_3_CarDef;Booleen;CAR_MESD_ZOC_BOR13_3;PET_ZOC_M2;SIA_CATS_NIV1_M2
Cartes des automates;Carte;Defaut Carte Communication;TK;CarDef;CTT.CAR.ZOC.BOR13_4.TK.CarDef;DB_BTK_ZOC_13.TK.CAR_ZOC_BOR13_4_CarDef;Booleen;CAR_MESD_ZOC_BOR13_4;PET_ZOC_M2;SIA_CATS_NIV1_M2
Cartes des automates;Carte;Defaut Carte Communication;TK;CarDef;CTT.CAR.ZOC.BOR3_1.TK.CarDef;DB_BTK_ZOC_3.TK.CAR_ZOC_BOR3_1_CarDef;Booleen;CAR_MESD_ZOC_BOR3_1;PET_ZOC_M2;SIA_CATS_NIV1_M2
Cartes des automates;Carte;Defaut Carte Communication;TK;CarDef;CTT.CAR.ZOC.BOR3_2.TK.CarDef;DB_BTK_ZOC_3.TK.CAR_ZOC_BOR3_2_CarDef;Booleen;CAR_MESD_ZOC_BOR3_2;PET_ZOC_M2;SIA_CATS_NIV1_M2
Cartes des automates;Carte;Defaut Carte Communication;TK;CarDef;CTT.CAR.ZOC.BOR3_3.TK.CarDef;DB_BTK_ZOC_3.TK.CAR_ZOC_BOR3_3_CarDef;Booleen;CAR_MESD_ZOC_BOR3_3;PET_ZOC_M2;SIA_CATS_NIV1_M2
Cartes des automates;Carte;Defaut Carte Communication;TK;CarDef;CTT.CAR.ZOC.BOR3_4.TK.CarDef;DB_BTK_ZOC_3.TK.CAR_ZOC_BOR3_4_CarDef;Booleen;CAR_MESD_ZOC_BOR3_4;PET_ZOC_M2;SIA_CATS_NIV1_M2
Cartes des automates;Carte;Defaut Carte Communication;TK;CarDef;CTT.CAR.ZOC.BOR3_5.TK.CarDef;DB_BTK_ZOC_3.TK.CAR_ZOC_BOR3_5_CarDef;Booleen;CAR_MESD_ZOC_BOR3_5;PET_ZOC_M2;SIA_CATS_NIV1_M2
Cartes des automates;Carte;Defaut Carte Communication;TK;CarDef;CTT.CAR.ZOC.BOR3_6.TK.CarDef;DB_BTK_ZOC_3.TK.CAR_ZOC_BOR3_6_CarDef;Booleen;CAR_MESD_ZOC_BOR3_6;PET_ZOC_M2;SIA_CATS_NIV1_M2
Cartes des automates;Carte;Defaut Carte Communication;TK;CarDef;CTT.CAR.ZOC.BOR3_7.TK.CarDef;DB_BTK_ZOC_3.TK.CAR_ZOC_BOR3_7_CarDef;Booleen;CAR_MESD_ZOC_BOR3_7;PET_ZOC_M2;SIA_CATS_NIV1_M2
Cartes des automates;Carte;Defaut Carte Communication;TK;CarDef;CTT.CAR.ZOC.BOR3_8.TK.CarDef;DB_BTK_ZOC_3.TK.CAR_ZOC_BOR3_8_CarDef;Booleen;CAR_MESD_ZOC_BOR3_8;PET_ZOC_M2;SIA_CATS_NIV1_M2
Cartes des automates;Carte;Defaut Carte Communication;TK;CarDef;CTT.CAR.ZOC.BOR4_1.TK.CarDef;DB_BTK_ZOC_4.TK.CAR_ZOC_BOR4_1_CarDef;Booleen;CAR_MESD_ZOC_BOR4_1;PET_ZOC_M2;SIA_CATS_NIV1_M2
Cartes des automates;Carte;Defaut Carte Communication;TK;CarDef;CTT.CAR.ZOC.BOR4_2.TK.CarDef;DB_BTK_ZOC_4.TK.CAR_ZOC_BOR4_2_CarDef;Booleen;CAR_MESD_ZOC_BOR4_2;PET_ZOC_M2;SIA_CATS_NIV1_M2
Cartes des automates;Carte;Defaut Carte Communication;TK;CarDef;CTT.CAR.ZOC.BOR4_3.TK.CarDef;DB_BTK_ZOC_4.TK.CAR_ZOC_BOR4_3_CarDef;Booleen;CAR_MESD_ZOC_BOR4_3;PET_ZOC_M2;SIA_CATS_NIV1_M2
Cartes des automates;Carte;Defaut Carte Communication;TK;CarDef;CTT.CAR.ZOC.BOR4_4.TK.CarDef;DB_BTK_ZOC_4.TK.CAR_ZOC_BOR4_4_CarDef;Booleen;CAR_MESD_ZOC_BOR4_4;PET_ZOC_M2;SIA_CATS_NIV1_M2
Cartes des automates;Carte;Defaut Carte Communication;TK;CarDef;CTT.CAR.ZOC.BOR4_5.TK.CarDef;DB_BTK_ZOC_4.TK.CAR_ZOC_BOR4_5_CarDef;Booleen;CAR_MESD_ZOC_BOR4_5;PET_ZOC_M2;SIA_CATS_NIV1_M2
Cartes des automates;Carte;Defaut Carte Communication;TK;CarDef;CTT.CAR.ZOC.BOR4_6.TK.CarDef;DB_BTK_ZOC_4.TK.CAR_ZOC_BOR4_6_CarDef;Booleen;CAR_MESD_ZOC_BOR4_6;PET_ZOC_M2;SIA_CATS_NIV1_M2
Cartes des automates;Carte;Defaut Carte Communication;TK;CarDef;CTT.CAR.ZOC.BOR4_7.TK.CarDef;DB_BTK_ZOC_4.TK.CAR_ZOC_BOR4_7_CarDef;Booleen;CAR_MESD_ZOC_BOR4_7;PET_ZOC_M2;SIA_CATS_NIV1_M2
Cartes des automates;Carte;Defaut Carte Communication;TK;CarDef;CTT.CAR.ZOC.BOR4_8.TK.CarDef;DB_BTK_ZOC_4.TK.CAR_ZOC_BOR4_8_CarDef;Booleen;CAR_MESD_ZOC_BOR4_8;PET_ZOC_M2;SIA_CATS_NIV1_M2
Cartes des automates;Carte;Defaut Carte Communication;TK;CarDef;CTT.CAR.ZOC.BOR5_1.TK.CarDef;DB_BTK_ZOC_5.TK.CAR_ZOC_BOR5_1_CarDef;Booleen;CAR_MESD_ZOC_BOR5_1;PET_ZOC_M2;SIA_CATS_NIV1_M2
Cartes des automates;Carte;Defaut Carte Communication;TK;CarDef;CTT.CAR.ZOC.BOR5_2.TK.CarDef;DB_BTK_ZOC_5.TK.CAR_ZOC_BOR5_2_CarDef;Booleen;CAR_MESD_ZOC_BOR5_2;PET_ZOC_M2;SIA_CATS_NIV1_M2
Cartes des automates;Carte;Defaut Carte Communication;TK;CarDef;CTT.CAR.ZOC.BOR5_3.TK.CarDef;DB_BTK_ZOC_5.TK.CAR_ZOC_BOR5_3_CarDef;Booleen;CAR_MESD_ZOC_BOR5_3;PET_ZOC_M2;SIA_CATS_NIV1_M2
Cartes des automates;Carte;Defaut Carte Communication;TK;CarDef;CTT.CAR.ZOC.BOR5_4.TK.CarDef;DB_BTK_ZOC_5.TK.CAR_ZOC_BOR5_4_CarDef;Booleen;CAR_MESD_ZOC_BOR5_4;PET_ZOC_M2;SIA_CATS_NIV1_M2
Cartes des automates;Carte;Defaut Carte Communication;TK;CarDef;CTT.CAR.ZOC.BOR5_5.TK.CarDef;DB_BTK_ZOC_5.TK.CAR_ZOC_BOR5_5_CarDef;Booleen;CAR_MESD_ZOC_BOR5_5;PET_ZOC_M2;SIA_CATS_NIV1_M2
Cartes des automates;Carte;Defaut Carte Communication;TK;CarDef;CTT.CAR.ZOC.BOR5_6.TK.CarDef;DB_BTK_ZOC_5.TK.CAR_ZOC_BOR5_6_CarDef;Booleen;CAR_MESD_ZOC_BOR5_6;PET_ZOC_M2;SIA_CATS_NIV1_M2
Cartes des automates;Carte;Defaut Carte Communication;TK;CarDef;CTT.CAR.ZOC.BOR5_7.TK.CarDef;DB_BTK_ZOC_5.TK.CAR_ZOC_BOR5_7_CarDef;Booleen;CAR_MESD_ZOC_BOR5_7;PET_ZOC_M2;SIA_CATS_NIV1_M2
Cartes des automates;Carte;Defaut Carte Communication;TK;CarDef;CTT.CAR.ZOC.BOR5_8.TK.CarDef;DB_BTK_ZOC_5.TK.CAR_ZOC_BOR5_8_CarDef;Booleen;CAR_MESD_ZOC_BOR5_8;PET_ZOC_M2;SIA_CATS_NIV1_M2
Cartes des automates;Carte;Defaut Carte Communication;TK;CarDef;CTT.CAR.ZOC.BOR6_1.TK.CarDef;DB_BTK_ZOC_6.TK.CAR_ZOC_BOR6_1_CarDef;Booleen;CAR_MESD_ZOC_BOR6_1;PET_ZOC_M2;SIA_CATS_NIV1_M2
Cartes des automates;Carte;Defaut Carte Communication;TK;CarDef;CTT.CAR.ZOC.BOR6_2.TK.CarDef;DB_BTK_ZOC_6.TK.CAR_ZOC_BOR6_2_CarDef;Booleen;CAR_MESD_ZOC_BOR6_2;PET_ZOC_M2;SIA_CATS_NIV1_M2
Cartes des automates;Carte;Defaut Carte Communication;TK;CarDef;CTT.CAR.ZOC.BOR6_3.TK.CarDef;DB_BTK_ZOC_6.TK.CAR_ZOC_BOR6_3_CarDef;Booleen;CAR_MESD_ZOC_BOR6_3;PET_ZOC_M2;SIA_CATS_NIV1_M2
Cartes des automates;Carte;Defaut Carte Communication;TK;CarDef;CTT.CAR.ZOC.BOR6_4.TK.CarDef;DB_BTK_ZOC_6.TK.CAR_ZOC_BOR6_4_CarDef;Booleen;CAR_MESD_ZOC_BOR6_4;PET_ZOC_M2;SIA_CATS_NIV1_M2
Cartes des automates;Carte;Defaut Carte Communication;TK;CarDef;CTT.CAR.ZOC.BOR7_1.TK.CarDef;DB_BTK_ZOC_7.TK.CAR_ZOC_BOR7_1_CarDef;Booleen;CAR_MESD_ZOC_BOR7_1;PET_ZOC_M2;SIA_CATS_NIV1_M2
Cartes des automates;Carte;Defaut Carte Communication;TK;CarDef;CTT.CAR.ZOC.BOR7_2.TK.CarDef;DB_BTK_ZOC_7.TK.CAR_ZOC_BOR7_2_CarDef;Booleen;CAR_MESD_ZOC_BOR7_2;PET_ZOC_M2;SIA_CATS_NIV1_M2
Defaut OLM;OLM;Defaut OLM;TK;DfOLM;CTT.OLM.LRM.M1_A.TK.DfOLM;DB_BTK_LRM_1.TK.OLM_LRM_M1_A_DfOLM;Booleen;OLM_APFTTR_LRM_M1;PET_LRM_M1;SIA_CATS_NIV1_M1
Defaut OLM;OLM;Defaut OLM;TK;DfOLM;CTT.OLM.STC.M1_B.TK.DfOLM;DB_BTK_STC_1.TK.OLM_STC_M1_B_DfOLM;Booleen;OLM_APFTTR_STC_M1;PET_STC_M1;SIA_CATS_NIV1_M1
Defaut OLM;OLM;Defaut OLM;TK;DfOLM;CTT.OLM.LRM.M2_A.TK.DfOLM;DB_BTK_LRM_2.TK.OLM_LRM_M2_A_DfOLM;Booleen;OLM_APFTTR_LRM_M2;PET_LRM_M1;SIA_CATS_NIV1_M1
Defaut OLM;OLM;Defaut OLM;TK;DfOLM;CTT.OLM.STC.M2_B.TK.DfOLM;DB_BTK_STC_2.TK.OLM_STC_M2_B_DfOLM;Booleen;OLM_APFTTR_STC_M2;PET_STC_M1;SIA_CATS_NIV1_M1
Scalance;Scalance;Defaut Scalance;TK;DefSCL;CTT.SCL.STC.M1.TK.DefSCL;DB_BTK_STC_1.TK.SCL_STC_M1_DefSCL;Booleen;SCL_APFTTR_STC_M1;PET_STC_M1;SIA_CATS_NIV1_M1
Scalance;Scalance;Defaut Scalance;TK;DefSCL;CTT.SCL.LRM.M1.TK.DefSCL;DB_BTK_LRM_1.TK.SCL_LRM_M1_DefSCL;Booleen;SCL_APFTTR_LRM_M1;PET_LRM_M1;SIA_CATS_NIV1_M1
Scalance;Scalance;Defaut Scalance;TK;DefSCL;CTT.SCL.STC.M2.TK.DefSCL;DB_BTK_STC_2.TK.SCL_STC_M2_DefSCL;Booleen;SCL_APFTTR_STC_M2;PET_STC_M1;SIA_CATS_NIV1_M1
Scalance;Scalance;Defaut Scalance;TK;DefSCL;CTT.SCL.LRM.M2.TK.DefSCL;DB_BTK_LRM_2.TK.SCL_LRM_M2_DefSCL;Booleen;SCL_APFTTR_LRM_M2;PET_LRM_M1;SIA_CATS_NIV1_M1
Batterie;Batterie;Defaut Batterie;TK;DfBAT;CTT.BAT.LRM_M1.BAT_1.TK.DfBAT;DB_BTK_LRM_1.TK.BAT_LRM_BAT_1_DfBAT;Booleen;BAT_APFTTR_LRM_M1;PET_LRM_M1;SIA_CATS_NIV1_M1
Batterie;Batterie;Defaut Batterie;TK;DfBAT;CTT.BAT.LRM_M2.BAT_2.TK.DfBAT;DB_BTK_LRM_2.TK.BAT_LRM_BAT_2_DfBAT;Booleen;BAT_APFTTR_LRM_M2;PET_LRM_M1;SIA_CATS_NIV1_M1
Batterie;Batterie;Defaut Batterie;TK;DfBAT;CTT.BAT.STC_M1.BAT_1.TK.DfBAT;DB_BTK_STC_1.TK.BAT_STC_BAT_1_DfBAT;Booleen;BAT_APFTTR_STC_M1;PET_STC_M1;SIA_CATS_NIV1_M1
Batterie;Batterie;Defaut Batterie;TK;DfBAT;CTT.BAT.STC_M2.BAT_2.TK.DfBAT;DB_BTK_STC_2.TK.BAT_STC_BAT_2_DfBAT;Booleen;BAT_APFTTR_STC_M2;PET_STC_M1;SIA_CATS_NIV1_M1
API-PR;APIPR;Defaut Liaison APIPR;TK;PRDLiai;CTT.APIPR.5AV.PR.TK.PRDLiai;DB_BTK_5AV_70.TK.APIPR_5AV_PR_PRDLiai;Booleen;APIPR_PR_5AV_M1;PET_5AV_M1;SIA_CATS_NIV1_M1
API-PR;APIPR;Defaut Liaison APIPR;TK;PRDLiai;CTT.APIPR.ARM.PR.TK.PRDLiai;DB_BTK_ARM_82.TK.APIPR_ARM_PR_PRDLiai;Booleen;APIPR_PR_ARM_M1;PET_ARM_M1;SIA_CATS_NIV1_M1
API-PR;APIPR;Defaut Liaison APIPR;TK;PRDLiai;CTT.APIPR.BGR.PR.TK.PRDLiai;DB_BTK_BGR_68.TK.APIPR_BGR_PR_PRDLiai;Booleen;APIPR_PR_BGR_M1;PET_STJ_M1;SIA_CATS_NIV1_M1
API-PR;APIPR;Defaut Liaison APIPR;TK;PRDLiai;CTT.APIPR.CAS.PR.TK.PRDLiai;DB_BTK_CAS_77.TK.APIPR_CAS_PR_PRDLiai;Booleen;APIPR_PR_CAS_M1;PET_CAS_M1;SIA_CATS_NIV1_M1
API-PR;APIPR;Defaut Liaison APIPR;TK;PRDLiai;CTT.APIPR.COL.PR.TK.PRDLiai;DB_BTK_COL_74.TK.APIPR_COL_PR_PRDLiai;Booleen;APIPR_PR_COL_M1;PET_COL_M1;SIA_CATS_NIV1_M1
API-PR;APIPR;Defaut Liaison APIPR;TK;PRDLiai;CTT.APIPR.CSR.PR.TK.PRDLiai;DB_BTK_CSR_95.TK.APIPR_CSR_PR_PRDLiai;Booleen;APIPR_PR_CSR_M1;PET_LRM_M1;SIA_CATS_NIV1_M1
API-PR;APIPR;Defaut Liaison APIPR;TK;PRDLiai;CTT.APIPR.FOU.PR10.TK.PRDLiai;DB_BTK_FOU_84.TK.APIPR_FOU_PR10_PRDLiai;Booleen;APIPR_PR10_FOU_M1;PET_FOU_M1;SIA_CATS_NIV1_M1
API-PR;APIPR;Defaut Liaison APIPR;TK;PRDLiai;CTT.APIPR.FOU.PR9.TK.PRDLiai;DB_BTK_FOU_84.TK.APIPR_FOU_PR9_PRDLiai;Booleen;APIPR_PR9_FOU_M1;PET_FOU_M1;SIA_CATS_NIV1_M1
API-PR;APIPR;Defaut Liaison APIPR;TK;PRDLiai;CTT.APIPR.LRM.PR.TK.PRDLiai;DB_BTK_LRM_99.TK.APIPR_LRM_PR_PRDLiai;Booleen;APIPR_PR_LRM_M1;PET_LRM_M1;SIA_CATS_NIV1_M1
API-PR;APIPR;Defaut Liaison APIPR;TK;PRDLiai;CTT.APIPR.TIM.PR.TK.PRDLiai;DB_BTK_TIM_80.TK.APIPR_TIM_PR_PRDLiai;Booleen;APIPR_PR_TIM_M1;PET_TIM_M1;SIA_CATS_NIV1_M1
